{
  "project_info": {
    "project_number": "142157697367",
    "firebase_url": "https://nellysjewelers.firebaseio.com",
    "project_id": "nellysjewelers",
    "storage_bucket": "nellysjewelers.appspot.com"
  },
  "client": [
    {
      "client_info": {
        "mobilesdk_app_id": "1:142157697367:android:3b3ef81208193011f5ae12",
        "android_client_info": {
          "package_name": "com.example.nellysjewelersapp"
        }
      },
      "oauth_client": [
        {
          "client_id": "142157697367-rljfmpnilker7sm35g1tr8bgqsp3921m.apps.googleusercontent.com",
          "client_type": 1,
          "android_info": {
            "package_name": "com.example.nellysjewelersapp",
            "certificate_hash": "0c97b591107cf3ad0384847e0d5d4661528ddded"
          }
        },
        {
          "client_id": "142157697367-smgn76drme7mmh7cb4fkvm9kgjdlq47q.apps.googleusercontent.com",
          "client_type": 3
        }
      ],
      "api_key": [
        {
          "current_key": "AIzaSyCuOf6qCxuJWwX-yi60i-b9VlDoFpJfEYU"
        }
      ],
      "services": {
        "appinvite_service": {
          "other_platform_oauth_client": [
            {
              "client_id": "142157697367-smgn76drme7mmh7cb4fkvm9kgjdlq47q.apps.googleusercontent.com",
              "client_type": 3
            }
          ]
        }
      }
    }
  ],
  "configuration_version": "1"
}